^C:\USERS\ALONSO\DOCUMENTS\VISUAL STUDIO 2010\PROJECTS\ANALISISCLINICOS\BUSINESSLAYER\PROCEDIMIENTOSALMACENADOS.RESX
C:\USERS\ALONSO\DOCUMENTS\VISUAL STUDIO 2010\PROJECTS\ANALISISCLINICOS\BUSINESSLAYER\OBJ\DEBUG\BUSINESSLAYER.PROCEDIMIENTOSALMACENADOS.RESOURCES
^C:\DOCUMENTS AND SETTINGS\ALONSO-PC\MIS DOCUMENTOS\VISUAL STUDIO 2010\PROJECTS\ANALISISCLINICOS\BUSINESSLAYER\PROCEDIMIENTOSALMACENADOS.RESX
C:\DOCUMENTS AND SETTINGS\ALONSO-PC\MIS DOCUMENTOS\VISUAL STUDIO 2010\PROJECTS\ANALISISCLINICOS\BUSINESSLAYER\OBJ\DEBUG\BUSINESSLAYER.PROCEDIMIENTOSALMACENADOS.RESOURCES
